…
For instance daily mean flow values can be queried using:

``` r
geomet_daily_mean(station_number = "10PC003")
#> No start and end dates specified. All dates available will be returned.
#> OK
#> Simple feature collection with 500 features and 12 fields
#> geometry type:  POINT
#> dimension:      XY
#> bbox:           xmin: -115.3786 ymin: 67.74028 xmax: -115.3786 ymax: 67.74028
#> epsg (SRID):    4326
#> proj4string:    +proj=longlat +datum=WGS84 +no_defs
#> # A tibble: 500 x 13
#>    id    station_number level level_symbol_en  flow flow_symbol_en
#>    <chr> <chr>          <chr> <chr>           <dbl> <chr>         
#>  1 10PC~ 10PC003        <NA>  <NA>               NA <NA>          
#>  2 10PC~ 10PC003        <NA>  <NA>               NA <NA>          
#>  3 10PC~ 10PC003        <NA>  <NA>               NA <NA>          
#>  4 10PC~ 10PC003        <NA>  <NA>               NA <NA>          
#>  5 10PC~ 10PC003        <NA>  <NA>               NA <NA>          
#>  6 10PC~ 10PC003        <NA>  <NA>               NA <NA>          
#>  7 10PC~ 10PC003        <NA>  <NA>               NA <NA>          
#>  8 10PC~ 10PC003        <NA>  <NA>               NA <NA>          
#>  9 10PC~ 10PC003        <NA>  <NA>              682 <NA>          
#> 10 10PC~ 10PC003        <NA>  <NA>              641 <NA>          
#> # ... with 490 more rows, and 7 more variables: flow_symbol_fr <chr>,
#> #   level_symbol_fr <chr>, date <date>, station_name <chr>,
#> #   identifier <chr>, prov_terr_state_loc <chr>, geometry <POINT [Â°]>
```

This returns an `sf` object by default. If you would rather simply
return a tibble you can set `as_spatial=FALSE`:

``` r
geomet_daily_mean(station_number = "10PC003", as_spatial = FALSE)
#> No start and end dates specified. All dates available will be returned.
#> OK
#> # A tibble: 1,280 x 13
#>    station_number level level_symbol_en  flow flow_symbol_en flow_symbol_fr
#>  * <chr>          <lgl> <lgl>           <dbl> <chr>          <chr>         
#>  1 10PC003        NA    NA                 NA <NA>           <NA>          
#>  2 10PC003        NA    NA                 NA <NA>           <NA>          
#>  3 10PC003        NA    NA                 NA <NA>           <NA>          
#>  4 10PC003        NA    NA                 NA <NA>           <NA>          
#>  5 10PC003        NA    NA                 NA <NA>           <NA>          
#>  6 10PC003        NA    NA                 NA <NA>           <NA>          
#>  7 10PC003        NA    NA                 NA <NA>           <NA>          
#>  8 10PC003        NA    NA                 NA <NA>           <NA>          
#>  9 10PC003        NA    NA                 NA <NA>           <NA>          
#> 10 10PC003        NA    NA                 NA <NA>           <NA>          
#> # ... with 1,270 more rows, and 7 more variables: level_symbol_fr <lgl>,
#> #   date <date>, station_name <chr>, identifier <chr>,
#> #   prov_terr_state_loc <chr>, longitude <dbl>, latitude <dbl>
```
…
